{
  "pad": "conductable",
  "author_ids": [
    "a.qpNTqGRNBGeL99Kf",
    "a.ouG6dmQrP1r6xG4a",
    "a.hBEyFSjyeP4bIrHB",
    "a.RsuWz0ASDG3sdo7p",
    "a.EPQovSf2RdM8wkbc",
    "a.HrOivP6YtRtQobC2"
  ],
  "lastedited_raw": 1560075627256,
  "pathbase": "publish/conductable",
  "revisions": 3426,
  "lastedited_iso": "2019-06-09T11:20:27.256000",
  "padid": "conductable",
  "group": "",
  "versions": [
    {
      "type": "pad",
      "code": 200,
      "url": "http://relearn.local:9001/p/conductable"
    },
    {
      "type": "text",
      "path": "publish/conductable",
      "url": "publish/conductable",
      "code": 200
    },
    {
      "type": "diffhtml",
      "message": "internal error",
      "code": 200
    },
    {
      "type": "html",
      "path": "publish/conductable.raw.html",
      "url": "publish/conductable.raw.html",
      "code": 200
    },
    {
      "type": "meta",
      "path": "publish/conductable.meta.json",
      "url": "publish/conductable.meta.json"
    }
  ]
}