{
  "pad": "damage_report",
  "padid": "damage_report",
  "lastedited_raw": 1559992069042,
  "lastedited_iso": "2019-06-08T12:07:49.042000",
  "author_ids": [
    "a.GVPI2iSsvp5Vh5vU",
    "a.HrOivP6YtRtQobC2"
  ],
  "revisions": 1001,
  "group": "",
  "versions": [
    {
      "url": "http://relearn.local:9001/p/damage_report",
      "type": "pad",
      "code": 200
    },
    {
      "path": "publish/damage_report",
      "type": "text",
      "code": 200,
      "url": "publish/damage_report"
    },
    {
      "message": "internal error",
      "type": "diffhtml",
      "code": 200
    },
    {
      "path": "publish/damage_report.raw.html",
      "type": "html",
      "code": 200,
      "url": "publish/damage_report.raw.html"
    },
    {
      "url": "publish/damage_report.meta.json",
      "type": "meta",
      "path": "publish/damage_report.meta.json"
    }
  ],
  "pathbase": "publish/damage_report"
}