{
  "author_ids": [
    "a.HVnrZtHcecKlJj2m",
    "a.x33ugoueIxlfn23Y",
    "a.HrOivP6YtRtQobC2"
  ],
  "pad": "etherstekjes",
  "pathbase": "publish/etherstekjes",
  "lastedited_raw": 1560091865535,
  "versions": [
    {
      "url": "http://relearn.local:9001/p/etherstekjes",
      "type": "pad",
      "code": 200
    },
    {
      "url": "publish/etherstekjes",
      "type": "text",
      "path": "publish/etherstekjes",
      "code": 200
    },
    {
      "type": "diffhtml",
      "message": "internal error",
      "code": 200
    },
    {
      "url": "publish/etherstekjes.raw.html",
      "type": "html",
      "path": "publish/etherstekjes.raw.html",
      "code": 200
    },
    {
      "url": "publish/etherstekjes.meta.json",
      "type": "meta",
      "path": "publish/etherstekjes.meta.json"
    }
  ],
  "revisions": 71,
  "lastedited_iso": "2019-06-09T15:51:05.535000",
  "group": "",
  "padid": "etherstekjes"
}