{
  "padid": "interdependencies.reorganize",
  "pad": "interdependencies.reorganize",
  "author_ids": [
    "a.qpNTqGRNBGeL99Kf",
    "a.Id50CSDXrn7IRe1w"
  ],
  "versions": [
    {
      "code": 200,
      "url": "http://relearn.local:9001/p/interdependencies.reorganize",
      "type": "pad"
    },
    {
      "path": "publish/interdependencies.reorganize",
      "code": 200,
      "url": "publish/interdependencies.reorganize",
      "type": "text"
    },
    {
      "message": "internal error",
      "code": 200,
      "type": "diffhtml"
    },
    {
      "path": "publish/interdependencies.reorganize.raw.html",
      "code": 200,
      "url": "publish/interdependencies.reorganize.raw.html",
      "type": "html"
    },
    {
      "path": "publish/interdependencies.reorganize.meta.json",
      "url": "publish/interdependencies.reorganize.meta.json",
      "type": "meta"
    }
  ],
  "lastedited_iso": "2019-06-09T14:40:46.929000",
  "pathbase": "publish/interdependencies.reorganize",
  "group": "",
  "revisions": 764,
  "lastedited_raw": 1560087646929
}