{
  "lastedited_raw": 1560073296334,
  "padid": "publish-index",
  "lastedited_iso": "2019-06-09T10:41:36.334000",
  "versions": [
    {
      "code": 200,
      "url": "http://relearn.local:9001/p/publish-index",
      "type": "pad"
    },
    {
      "code": 200,
      "url": "publish/publish-index",
      "type": "text",
      "path": "publish/publish-index"
    },
    {
      "code": 200,
      "type": "diffhtml",
      "message": "internal error"
    },
    {
      "code": 200,
      "url": "publish/publish-index.raw.html",
      "type": "html",
      "path": "publish/publish-index.raw.html"
    },
    {
      "url": "publish/publish-index.meta.json",
      "type": "meta",
      "path": "publish/publish-index.meta.json"
    }
  ],
  "revisions": 3680,
  "pad": "publish-index",
  "author_ids": [
    "a.hBEyFSjyeP4bIrHB",
    "a.nqP3JJVh5dTTC3zf",
    "a.HrOivP6YtRtQobC2",
    "a.Id50CSDXrn7IRe1w",
    "a.qpNTqGRNBGeL99Kf",
    "a.RsuWz0ASDG3sdo7p",
    "a.ouG6dmQrP1r6xG4a",
    "a.EPQovSf2RdM8wkbc",
    "a.lJINFm5eRunoh6Wn",
    "a.a1iWwXkmpggskW1O",
    "a.ze3Z6QJXDl2kdOIy"
  ],
  "group": "",
  "pathbase": "publish/publish-index"
}