{
  "padid": "reroamingwhy",
  "author_ids": [
    "a.vnvNrfsxcmTYMzbh",
    "a.HVnrZtHcecKlJj2m"
  ],
  "revisions": 306,
  "pad": "reroamingwhy",
  "pathbase": "publish/reroamingwhy",
  "lastedited_raw": 1560096226839,
  "group": "",
  "lastedited_iso": "2019-06-09T17:03:46.839000",
  "versions": [
    {
      "code": 200,
      "type": "pad",
      "url": "http://relearn.local:9001/p/reroamingwhy"
    },
    {
      "path": "publish/reroamingwhy",
      "code": 200,
      "type": "text",
      "url": "publish/reroamingwhy"
    },
    {
      "message": "internal error",
      "code": 200,
      "type": "diffhtml"
    },
    {
      "path": "publish/reroamingwhy.raw.html",
      "code": 200,
      "type": "html",
      "url": "publish/reroamingwhy.raw.html"
    },
    {
      "path": "publish/reroamingwhy.meta.json",
      "type": "meta",
      "url": "publish/reroamingwhy.meta.json"
    }
  ]
}