{
  "lastedited_raw": 1560071110423,
  "padid": "saturday",
  "revisions": 800,
  "author_ids": [
    "a.qpNTqGRNBGeL99Kf",
    "a.RsuWz0ASDG3sdo7p",
    "a.HrOivP6YtRtQobC2",
    "a.hBEyFSjyeP4bIrHB",
    "a.5z4de3olwasTLU1k",
    "a.f98yINILYKhlP4rl",
    "a.ouG6dmQrP1r6xG4a",
    "a.Id50CSDXrn7IRe1w",
    "a.VzXNczxhKLu0VnUD",
    "a.C19agqneLaCD5WcW",
    "a.HVnrZtHcecKlJj2m",
    "a.TF5ZmRQcBahjPZsO",
    "a.a1iWwXkmpggskW1O",
    "a.EPQovSf2RdM8wkbc"
  ],
  "group": "",
  "lastedited_iso": "2019-06-09T10:05:10.423000",
  "versions": [
    {
      "code": 200,
      "type": "pad",
      "url": "http://relearn.local:9001/p/saturday"
    },
    {
      "code": 200,
      "type": "text",
      "url": "publish/saturday",
      "path": "publish/saturday"
    },
    {
      "code": 200,
      "type": "diffhtml",
      "message": "internal error"
    },
    {
      "code": 200,
      "type": "html",
      "url": "publish/saturday.raw.html",
      "path": "publish/saturday.raw.html"
    },
    {
      "type": "meta",
      "url": "publish/saturday.meta.json",
      "path": "publish/saturday.meta.json"
    }
  ],
  "pad": "saturday",
  "pathbase": "publish/saturday"
}